…
``` r
NYC_subway_clean <- janitor::clean_names(NYC_subway) |>
  select(line, station_name, station_latitude, station_longitude, route1, route2, route3, route4, route5, route6, route7, route8, route9, route10, route11, entry, vending, entrance_type, ada) |>
  mutate(entry = case_match(entry, "YES" ~ TRUE, "NO" ~ FALSE))
NYC_subway_clean
```

    ## # A tibble: 1,868 × 19
    ##    line     station_name station_latitude station_longitude route1 route2 route3
    ##    <chr>    <chr>                   <dbl>             <dbl> <chr>  <chr>  <chr> 
    ##  1 4 Avenue 25th St                  40.7             -74.0 R      <NA>   <NA>  
    ##  2 4 Avenue 25th St                  40.7             -74.0 R      <NA>   <NA>  
    ##  3 4 Avenue 36th St                  40.7             -74.0 N      R      <NA>  
    ##  4 4 Avenue 36th St                  40.7             -74.0 N      R      <NA>  
    ##  5 4 Avenue 36th St                  40.7             -74.0 N      R      <NA>  
    ##  6 4 Avenue 45th St                  40.6             -74.0 R      <NA>   <NA>  
    ##  7 4 Avenue 45th St                  40.6             -74.0 R      <NA>   <NA>  
    ##  8 4 Avenue 45th St                  40.6             -74.0 R      <NA>   <NA>  
    ##  9 4 Avenue 45th St                  40.6             -74.0 R      <NA>   <NA>  
    ## 10 4 Avenue 53rd St                  40.6             -74.0 R      <NA>   <NA>  
    ## # ℹ 1,858 more rows
    ## # ℹ 12 more variables: route4 <chr>, route5 <chr>, route6 <chr>, route7 <chr>,
    ## #   route8 <dbl>, route9 <dbl>, route10 <dbl>, route11 <dbl>, entry <lgl>,
    ## #   vending <chr>, entrance_type <chr>, ada <lgl>
…
NYC_subway_tidy <- 
  pivot_longer(
    NYC_subway_clean, 
    route1:route11, 
    names_to = "route_number", 
    names_prefix = "route", 
    values_to = "route_name"
  )
NYC_subway_tidy
```

    ## # A tibble: 20,548 × 10
    ##    line     station_name station_latitude station_longitude entry vending
    ##    <chr>    <chr>                   <dbl>             <dbl> <lgl> <chr>  
    ##  1 4 Avenue 25th St                  40.7             -74.0 TRUE  YES    
    ##  2 4 Avenue 25th St                  40.7             -74.0 TRUE  YES    
    ##  3 4 Avenue 25th St                  40.7             -74.0 TRUE  YES    
    ##  4 4 Avenue 25th St                  40.7             -74.0 TRUE  YES    
    ##  5 4 Avenue 25th St                  40.7             -74.0 TRUE  YES    
    ##  6 4 Avenue 25th St                  40.7             -74.0 TRUE  YES    
    ##  7 4 Avenue 25th St                  40.7             -74.0 TRUE  YES    
    ##  8 4 Avenue 25th St                  40.7             -74.0 TRUE  YES    
    ##  9 4 Avenue 25th St                  40.7             -74.0 TRUE  YES    
    ## 10 4 Avenue 25th St                  40.7             -74.0 TRUE  YES    
    ## # ℹ 20,538 more rows
    ## # ℹ 4 more variables: entrance_type <chr>, ada <lgl>, route_number <chr>,
    ## #   route_name <chr>
…
    ## New names:
    ## • `` -> `...15`
    ## • `` -> `...16`

``` r
trash_wheel_clean <- trash_wheel |>
  filter(!is.na(dumpster)) |> 
  mutate(sports_balls = round(sports_balls) |>
           as.integer(), year = as.double(year)) |>
  mutate(trash_w = "mr.")
trash_wheel_clean
```

    ## # A tibble: 651 × 17
    ##    dumpster month  year date                weight_tons volume_cubic_yards
    ##       <dbl> <chr> <dbl> <dttm>                    <dbl>              <dbl>
    ##  1        1 May    2014 2014-05-16 00:00:00        4.31                 18
    ##  2        2 May    2014 2014-05-16 00:00:00        2.74                 13
    ##  3        3 May    2014 2014-05-16 00:00:00        3.45                 15
    ##  4        4 May    2014 2014-05-17 00:00:00        3.1                  15
    ##  5        5 May    2014 2014-05-17 00:00:00        4.06                 18
    ##  6        6 May    2014 2014-05-20 00:00:00        2.71                 13
    ##  7        7 May    2014 2014-05-21 00:00:00        1.91                  8
    ##  8        8 May    2014 2014-05-28 00:00:00        3.7                  16
    ##  9        9 June   2014 2014-06-05 00:00:00        2.52                 14
    ## 10       10 June   2014 2014-06-11 00:00:00        3.76                 18
    ## # ℹ 641 more rows
    ## # ℹ 11 more variables: plastic_bottles <dbl>, polystyrene <dbl>,
    ## #   cigarette_butts <dbl>, glass_bottles <dbl>, plastic_bags <dbl>,
    ## #   wrappers <dbl>, sports_balls <int>, homes_powered <dbl>, x15 <lgl>,
    ## #   x16 <lgl>, trash_w <chr>
…
